%YAML 1.1
%TAG !u! tag:unity3d.com,2011:
--- !u!1045 &1
EditorBuildSettings:
  m_ObjectHideFlags: 0
  serializedVersion: 2
  m_Scenes:
  - enabled: 1
    path: Assets/Scenes/StartPage.unity
    guid: 34830021565c1495fbd2e67885ead987
  - enabled: 1
    path: Assets/Scenes/FireLvl1.unity
    guid: 9bc2c8890a666fc4bbed50faab1b0a8f
  - enabled: 1
    path: Assets/Scenes/AirLevel1.unity
    guid: 332901bc88df18740b4a6f5ed56f30ee
  - enabled: 1
    path: Assets/Scenes/EarthLevel1.unity
    guid: 2fca479b60a8e4d2aa5dbdf55c118e69
  - enabled: 1
    path: Assets/Scenes/FireLvl2.unity
    guid: 1e1f27942c06c4a9e9aeaee728053193
  - enabled: 1
    path: Assets/Scenes/AirLevel2.unity
    guid: 2b1ab01a5e40995428943ad4504b52cf
  - enabled: 1
    path: Assets/Scenes/EarthLevel2.unity
    guid: be6d764efdfcb6c4f99c51bf907e95e7
  - enabled: 1
    path: Assets/Scenes/StartScene.unity
    guid: 945ddd6804ccc486f81d173f5e77bf28
  - enabled: 1
    path: Assets/Scenes/youwon.unity
    guid: 4ed122a7c8bad4b309b2086bcffcb319
  m_configObjects: {}
